{
  "kind": "roleAssignment",
  "properties": {
    "displayName": "[User group or application name] : Marketplace Admin",
    "dependsOn": [],
    "roleDefinitionId": "/providers/Microsoft.Authorization/roleDefinitions/dd920d6d-f481-47f1-b461-f338c46b2d9f",
    "principalIds": "[parameters('[Usergrouporapplicationname]:MarketplaceAdmin_RoleAssignmentName')]"
  }
}